ISSS608 - Take-home Exercise 3
…
Show the code

prices_mean_by_town%>% 
  filter(flat_type==type) 

# A tibble: 6,345 × 6
# Groups:   town [26]
   town       flat_type     n  mean    sd    se
   <chr>      <chr>     <int> <dbl> <dbl> <dbl>
 1 ANG MO KIO 3 ROOM      987  5940 1511.  48.1
 2 ANG MO KIO 3 ROOM      987  5940 1511.  48.1
 3 ANG MO KIO 3 ROOM      987  5940 1511.  48.1
 4 ANG MO KIO 3 ROOM      987  5940 1511.  48.1
 5 ANG MO KIO 3 ROOM      987  5940 1511.  48.1
 6 ANG MO KIO 3 ROOM      987  5940 1511.  48.1
 7 ANG MO KIO 3 ROOM      987  5940 1511.  48.1
 8 ANG MO KIO 3 ROOM      987  5940 1511.  48.1
 9 ANG MO KIO 3 ROOM      987  5940 1511.  48.1
10 ANG MO KIO 3 ROOM      987  5940 1511.  48.1
# … with 6,335 more rows
…
Show the code

prices_mean_by_town%>% 
  filter(flat_type==type) 

# A tibble: 11,311 × 6
# Groups:   town [26]
   town       flat_type     n  mean    sd    se
   <chr>      <chr>     <int> <dbl> <dbl> <dbl>
 1 ANG MO KIO 4 ROOM      987  5940 1511.  48.1
 2 ANG MO KIO 4 ROOM      987  5940 1511.  48.1
 3 ANG MO KIO 4 ROOM      987  5940 1511.  48.1
 4 ANG MO KIO 4 ROOM      987  5940 1511.  48.1
 5 ANG MO KIO 4 ROOM      987  5940 1511.  48.1
 6 ANG MO KIO 4 ROOM      987  5940 1511.  48.1
 7 ANG MO KIO 4 ROOM      987  5940 1511.  48.1
 8 ANG MO KIO 4 ROOM      987  5940 1511.  48.1
 9 ANG MO KIO 4 ROOM      987  5940 1511.  48.1
10 ANG MO KIO 4 ROOM      987  5940 1511.  48.1
# … with 11,301 more rows
…
Show the code

prices_mean_by_town%>% 
  filter(flat_type==type) 

# A tibble: 6,716 × 6
# Groups:   town [26]
   town       flat_type     n  mean    sd    se
   <chr>      <chr>     <int> <dbl> <dbl> <dbl>
 1 ANG MO KIO 5 ROOM      987  5940 1511.  48.1
 2 ANG MO KIO 5 ROOM      987  5940 1511.  48.1
 3 ANG MO KIO 5 ROOM      987  5940 1511.  48.1
 4 ANG MO KIO 5 ROOM      987  5940 1511.  48.1
 5 ANG MO KIO 5 ROOM      987  5940 1511.  48.1
 6 ANG MO KIO 5 ROOM      987  5940 1511.  48.1
 7 ANG MO KIO 5 ROOM      987  5940 1511.  48.1
 8 ANG MO KIO 5 ROOM      987  5940 1511.  48.1
 9 ANG MO KIO 5 ROOM      987  5940 1511.  48.1
10 ANG MO KIO 5 ROOM      987  5940 1511.  48.1
# … with 6,706 more rows
…
